{
  "forge_marker": 1,
  "variants": {
    "normal": [{
      "model": "botania:shapes/cross_tinted",
      "textures": {
        "cross": "botanicadds:blocks/flower_gen_snow_flower"
      }
    }],
    "inventory": [{
      "model": "builtin/generated",
      "transform": "forge:default-item",
      "textures": {
        "layer0": "botanicadds:blocks/flower_gen_snow_flower"
      }
    }]
  }
}